Entrega I
…
The following objects are masked from 'package:base':

    intersect, setdiff, setequal, union

library(gapminder)

Caso práctico I: análisis de Star Wars

El archivo de datos a usar lo cargaremos del paquete{dplyr}. En él tenemos diferentes variables de los personajes de Star Wars, con características de su pelo, piel, altura, nombre, etc.

# no cambies código
starwars

# A tibble: 87 × 14
   name     height  mass hair_color skin_color eye_color birth_year sex   gender
   <chr>     <int> <dbl> <chr>      <chr>      <chr>          <dbl> <chr> <chr> 
 1 Luke Sk…    172    77 blond      fair       blue            19   male  mascu…
 2 C-3PO       167    75 <NA>       gold       yellow         112   none  mascu…
 3 R2-D2        96    32 <NA>       white, bl… red             33   none  mascu…
 4 Darth V…    202   136 none       white      yellow          41.9 male  mascu…
 5 Leia Or…    150    49 brown      light      brown           19   fema… femin…
 6 Owen La…    178   120 brown, gr… light      blue            52   male  mascu…
 7 Beru Wh…    165    75 brown      light      blue            47   fema… femin…
 8 R5-D4        97    32 <NA>       white, red red             NA   none  mascu…
 9 Biggs D…    183    84 black      light      brown           24   male  mascu…
10 Obi-Wan…    182    77 auburn, w… fair       blue-gray       57   male  mascu…
# ℹ 77 more rows
# ℹ 5 more variables: homeworld <chr>, species <chr>, films <list>,
#   vehicles <list>, starships <list>
…
mean(starwars$mass, na.rm = TRUE)

[1] 97.31186

sd(starwars$mass, na.rm = TRUE)

[1] 169.4572

tibble("nombres" = starwars$name[stringr::str_detect(starwars$eye_color, "brown")],
       "pesos" = starwars$mass[stringr::str_detect(starwars$eye_color, "brown")],
       "estaturas" = starwars$height[stringr::str_detect(starwars$eye_color, "brown")],
       "IMC" = pesos / ((estaturas/100)^2))

# A tibble: 21 × 4
   nombres               pesos estaturas   IMC
   <chr>                 <dbl>     <int> <dbl>
 1 Leia Organa            49         150  21.8
 2 Biggs Darklighter      84         183  25.1
 3 Han Solo               80         180  24.7
 4 Yoda                   17          66  39.0
 5 Boba Fett              78.2       183  23.4
 6 Lando Calrissian       79         177  25.2
 7 Arvel Crynyd           NA          NA  NA  
 8 Wicket Systri Warrick  20          88  25.8
 9 Quarsh Panaka          NA         183  NA  
10 Shmi Skywalker         NA         163  NA  
# ℹ 11 more rows

Caso práctico II: análisis de gapminder

El archivo de datos a usar lo cargaremos del paquete{gapminder}

gapminder

# A tibble: 1,704 × 6
   country     continent  year lifeExp      pop gdpPercap
   <fct>       <fct>     <int>   <dbl>    <int>     <dbl>
 1 Afghanistan Asia       1952    28.8  8425333      779.
 2 Afghanistan Asia       1957    30.3  9240934      821.
 3 Afghanistan Asia       1962    32.0 10267083      853.
 4 Afghanistan Asia       1967    34.0 11537966      836.
 5 Afghanistan Asia       1972    36.1 13079460      740.
 6 Afghanistan Asia       1977    38.4 14880372      786.
 7 Afghanistan Asia       1982    39.9 12881816      978.
 8 Afghanistan Asia       1987    40.8 13867957      852.
 9 Afghanistan Asia       1992    41.7 16317921      649.
10 Afghanistan Asia       1997    41.8 22227415      635.
# ℹ 1,694 more rows
…
Carga el archivo messy_covid_data.xlsx y conviértelo a tidy data

library(readxl)
messy_covid <- read_xlsx(path = "./messy_covid_data.xlsx")

library(tidyr)
messy_covid |>
  pivot_longer(cols = "0-9_H":"NC_NC",
               names_to = "edad_sexo",
               values_to = "casos", ) |>
  separate(col = "edad_sexo", into = c("edad", "sexo"),
           sep = "_")

# A tibble: 1,299,030 × 5
   provincia_iso fecha               edad  sexo  casos
   <chr>         <dttm>              <chr> <chr> <dbl>
 1 A             2020-01-01 00:00:00 0-9   H         0
 2 A             2020-01-01 00:00:00 10-19 H         0
 3 A             2020-01-01 00:00:00 20-29 H         0
 4 A             2020-01-01 00:00:00 30-39 H         0
 5 A             2020-01-01 00:00:00 40-49 H         0
 6 A             2020-01-01 00:00:00 50-59 H         0
 7 A             2020-01-01 00:00:00 60-69 H         0
 8 A             2020-01-01 00:00:00 70-79 H         0
 9 A             2020-01-01 00:00:00 80+   H         0
10 A             2020-01-01 00:00:00 NC    H         0
# ℹ 1,299,020 more rows

messy_covid |>
  pivot_longer(cols = "0-9_H":"NC_NC",
               names_to = c("edad", "sexo"),
               values_to = "casos",
               names_sep = "_")

# A tibble: 1,299,030 × 5
   provincia_iso fecha               edad  sexo  casos
   <chr>         <dttm>              <chr> <chr> <dbl>
 1 A             2020-01-01 00:00:00 0-9   H         0
 2 A             2020-01-01 00:00:00 10-19 H         0
 3 A             2020-01-01 00:00:00 20-29 H         0
 4 A             2020-01-01 00:00:00 30-39 H         0
 5 A             2020-01-01 00:00:00 40-49 H         0
 6 A             2020-01-01 00:00:00 50-59 H         0
 7 A             2020-01-01 00:00:00 60-69 H         0
 8 A             2020-01-01 00:00:00 70-79 H         0
 9 A             2020-01-01 00:00:00 80+   H         0
10 A             2020-01-01 00:00:00 NC    H         0
# ℹ 1,299,020 more rows
